<?xml version="1.0" encoding="utf-8"?>
<!-- Generator: Adobe Illustrator 23.0.6, SVG Export Plug-In . SVG Version: 6.00 Build 0)  -->
<svg version="1.1" id="icon" xmlns="http://www.w3.org/2000/svg" xmlns:xlink="http://www.w3.org/1999/xlink" x="0px" y="0px"
	 viewBox="0 0 9.5 14" enable-background="new 0 0 9.5 14" xml:space="preserve">
<polyline id="arrow_back" fill="none" stroke="#4A4A4A" stroke-width="2" stroke-linecap="round" points="8.5,1 1.5,7 8.5,13 "/>
</svg>
