<?xml version="1.0" encoding="utf-8"?>
<!-- Generator: Adobe Illustrator 23.0.6, SVG Export Plug-In . SVG Version: 6.00 Build 0)  -->
<svg version="1.1" id="icon" xmlns="http://www.w3.org/2000/svg" xmlns:xlink="http://www.w3.org/1999/xlink" x="0px" y="0px"
	 viewBox="0 0 14 9.5" enable-background="new 0 0 14 9.5" xml:space="preserve">
<polyline id="arrow" fill="none" stroke="#4A4A4A" stroke-width="2" stroke-linecap="round" points="1,8.5 7,1.5 13,8.5 "/>
</svg>
