<?xml version="1.0" encoding="utf-8"?>
<!-- Generator: Adobe Illustrator 23.0.6, SVG Export Plug-In . SVG Version: 6.00 Build 0)  -->
<svg version="1.1" id="icon" xmlns="http://www.w3.org/2000/svg" xmlns:xlink="http://www.w3.org/1999/xlink" x="0px" y="0px"
	 viewBox="0 0 37.6 35" enable-background="new 0 0 37.6 35" xml:space="preserve">
<path id="curve" fill="#E5E5E5" d="M0,0h37.5l0.1,35h-2.4c-4.6,0-8.9-2.1-11.7-5.6L0,0L0,0z"/>
</svg>
