<?xml version="1.0" encoding="utf-8"?>
<!-- Generator: Adobe Illustrator 23.0.6, SVG Export Plug-In . SVG Version: 6.00 Build 0)  -->
<svg version="1.1" id="icon" xmlns="http://www.w3.org/2000/svg" xmlns:xlink="http://www.w3.org/1999/xlink" x="0px" y="0px"
	 viewBox="0 0 20.2 17" enable-background="new 0 0 20.2 17" xml:space="preserve">
<path id="border" fill="#9B9B9B" d="M14.4,5.8V0H0v11.2h5.8V17h14.4V5.8H14.4z M1,10.2V1h12.4v4.8H5.8v4.5H1V10.2z M19.2,16H6.8V6.8
	h12.4V16z"/>
<polygon id="plus" fill="#9B9B9B" points="16.5,11 13.5,11 13.5,8 12.5,8 12.5,11 9.5,11 9.5,12 12.5,12 12.5,15 13.5,15 13.5,12 
	16.5,12 "/>
</svg>
